graph.vcd
$date
     May 09, 2022       14:53:22
$end

$version
              SystemC 2.3.0-ASI --- Sep 10 2012 16:44:06
$end

$timescale
     1 ps
$end

$scope module SystemC $end
$var wire    1  aaa  s_clock       $end
$var wire    1  aab  d_clock       $end
$var wire   11  aac  si_source(0).data [10:0]  $end
$var wire    4  aad  si_source(0).id [3:0]  $end
$var wire    4  aae  si_source(0).dest [3:0]  $end
$var wire    1  aaf  si_source(0).pkt_clk       $end
$var wire    1  aag  si_source(0).h_t       $end
$var wire   11  aah  si_source(1).data [10:0]  $end
$var wire    4  aai  si_source(1).id [3:0]  $end
$var wire    4  aaj  si_source(1).dest [3:0]  $end
$var wire    1  aak  si_source(1).pkt_clk       $end
$var wire    1  aal  si_source(1).h_t       $end
$var wire   11  aam  si_source(2).data [10:0]  $end
$var wire    4  aan  si_source(2).id [3:0]  $end
$var wire    4  aao  si_source(2).dest [3:0]  $end
$var wire    1  aap  si_source(2).pkt_clk       $end
$var wire    1  aaq  si_source(2).h_t       $end
$var wire   11  aar  si_source(3).data [10:0]  $end
$var wire    4  aas  si_source(3).id [3:0]  $end
$var wire    4  aat  si_source(3).dest [3:0]  $end
$var wire    1  aau  si_source(3).pkt_clk       $end
$var wire    1  aav  si_source(3).h_t       $end
$var wire   11  aaw  si_source(4).data [10:0]  $end
$var wire    4  aax  si_source(4).id [3:0]  $end
$var wire    4  aay  si_source(4).dest [3:0]  $end
$var wire    1  aaz  si_source(4).pkt_clk       $end
$var wire    1  aba  si_source(4).h_t       $end
$var wire   11  abb  si_source(5).data [10:0]  $end
$var wire    4  abc  si_source(5).id [3:0]  $end
$var wire    4  abd  si_source(5).dest [3:0]  $end
$var wire    1  abe  si_source(5).pkt_clk       $end
$var wire    1  abf  si_source(5).h_t       $end
$var wire   11  abg  si_source(6).data [10:0]  $end
$var wire    4  abh  si_source(6).id [3:0]  $end
$var wire    4  abi  si_source(6).dest [3:0]  $end
$var wire    1  abj  si_source(6).pkt_clk       $end
$var wire    1  abk  si_source(6).h_t       $end
$var wire   11  abl  si_source(7).data [10:0]  $end
$var wire    4  abm  si_source(7).id [3:0]  $end
$var wire    4  abn  si_source(7).dest [3:0]  $end
$var wire    1  abo  si_source(7).pkt_clk       $end
$var wire    1  abp  si_source(7).h_t       $end
$var wire   11  abq  si_source(8).data [10:0]  $end
$var wire    4  abr  si_source(8).id [3:0]  $end
$var wire    4  abs  si_source(8).dest [3:0]  $end
$var wire    1  abt  si_source(8).pkt_clk       $end
$var wire    1  abu  si_source(8).h_t       $end
$var wire   11  abv  si_source(9).data [10:0]  $end
$var wire    4  abw  si_source(9).id [3:0]  $end
$var wire    4  abx  si_source(9).dest [3:0]  $end
$var wire    1  aby  si_source(9).pkt_clk       $end
$var wire    1  abz  si_source(9).h_t       $end
$var wire   11  aca  si_source(10).data [10:0]  $end
$var wire    4  acb  si_source(10).id [3:0]  $end
$var wire    4  acc  si_source(10).dest [3:0]  $end
$var wire    1  acd  si_source(10).pkt_clk       $end
$var wire    1  ace  si_source(10).h_t       $end
$var wire   11  acf  si_source(11).data [10:0]  $end
$var wire    4  acg  si_source(11).id [3:0]  $end
$var wire    4  ach  si_source(11).dest [3:0]  $end
$var wire    1  aci  si_source(11).pkt_clk       $end
$var wire    1  acj  si_source(11).h_t       $end
$var wire   11  ack  si_source(12).data [10:0]  $end
$var wire    4  acl  si_source(12).id [3:0]  $end
$var wire    4  acm  si_source(12).dest [3:0]  $end
$var wire    1  acn  si_source(12).pkt_clk       $end
$var wire    1  aco  si_source(12).h_t       $end
$var wire   11  acp  si_source(13).data [10:0]  $end
$var wire    4  acq  si_source(13).id [3:0]  $end
$var wire    4  acr  si_source(13).dest [3:0]  $end
$var wire    1  acs  si_source(13).pkt_clk       $end
$var wire    1  act  si_source(13).h_t       $end
$var wire   11  acu  si_source(14).data [10:0]  $end
$var wire    4  acv  si_source(14).id [3:0]  $end
$var wire    4  acw  si_source(14).dest [3:0]  $end
$var wire    1  acx  si_source(14).pkt_clk       $end
$var wire    1  acy  si_source(14).h_t       $end
$var wire   11  acz  si_source(15).data [10:0]  $end
$var wire    4  ada  si_source(15).id [3:0]  $end
$var wire    4  adb  si_source(15).dest [3:0]  $end
$var wire    1  adc  si_source(15).pkt_clk       $end
$var wire    1  add  si_source(15).h_t       $end
$var wire   11  ade  si_sink(0).data [10:0]  $end
$var wire    4  adf  si_sink(0).id [3:0]  $end
$var wire    4  adg  si_sink(0).dest [3:0]  $end
$var wire    1  adh  si_sink(0).pkt_clk       $end
$var wire    1  adi  si_sink(0).h_t       $end
$var wire   11  adj  si_sink(1).data [10:0]  $end
$var wire    4  adk  si_sink(1).id [3:0]  $end
$var wire    4  adl  si_sink(1).dest [3:0]  $end
$var wire    1  adm  si_sink(1).pkt_clk       $end
$var wire    1  adn  si_sink(1).h_t       $end
$var wire   11  ado  si_sink(2).data [10:0]  $end
$var wire    4  adp  si_sink(2).id [3:0]  $end
$var wire    4  adq  si_sink(2).dest [3:0]  $end
$var wire    1  adr  si_sink(2).pkt_clk       $end
$var wire    1  ads  si_sink(2).h_t       $end
$var wire   11  adt  si_sink(3).data [10:0]  $end
$var wire    4  adu  si_sink(3).id [3:0]  $end
$var wire    4  adv  si_sink(3).dest [3:0]  $end
$var wire    1  adw  si_sink(3).pkt_clk       $end
$var wire    1  adx  si_sink(3).h_t       $end
$var wire   11  ady  si_sink(4).data [10:0]  $end
$var wire    4  adz  si_sink(4).id [3:0]  $end
$var wire    4  aea  si_sink(4).dest [3:0]  $end
$var wire    1  aeb  si_sink(4).pkt_clk       $end
$var wire    1  aec  si_sink(4).h_t       $end
$var wire   11  aed  si_sink(5).data [10:0]  $end
$var wire    4  aee  si_sink(5).id [3:0]  $end
$var wire    4  aef  si_sink(5).dest [3:0]  $end
$var wire    1  aeg  si_sink(5).pkt_clk       $end
$var wire    1  aeh  si_sink(5).h_t       $end
$var wire   11  aei  si_sink(6).data [10:0]  $end
$var wire    4  aej  si_sink(6).id [3:0]  $end
$var wire    4  aek  si_sink(6).dest [3:0]  $end
$var wire    1  ael  si_sink(6).pkt_clk       $end
$var wire    1  aem  si_sink(6).h_t       $end
$var wire   11  aen  si_sink(7).data [10:0]  $end
$var wire    4  aeo  si_sink(7).id [3:0]  $end
$var wire    4  aep  si_sink(7).dest [3:0]  $end
$var wire    1  aeq  si_sink(7).pkt_clk       $end
$var wire    1  aer  si_sink(7).h_t       $end
$var wire   11  aes  si_sink(8).data [10:0]  $end
$var wire    4  aet  si_sink(8).id [3:0]  $end
$var wire    4  aeu  si_sink(8).dest [3:0]  $end
$var wire    1  aev  si_sink(8).pkt_clk       $end
$var wire    1  aew  si_sink(8).h_t       $end
$var wire   11  aex  si_sink(9).data [10:0]  $end
$var wire    4  aey  si_sink(9).id [3:0]  $end
$var wire    4  aez  si_sink(9).dest [3:0]  $end
$var wire    1  afa  si_sink(9).pkt_clk       $end
$var wire    1  afb  si_sink(9).h_t       $end
$var wire   11  afc  si_sink(10).data [10:0]  $end
$var wire    4  afd  si_sink(10).id [3:0]  $end
$var wire    4  afe  si_sink(10).dest [3:0]  $end
$var wire    1  aff  si_sink(10).pkt_clk       $end
$var wire    1  afg  si_sink(10).h_t       $end
$var wire   11  afh  si_sink(11).data [10:0]  $end
$var wire    4  afi  si_sink(11).id [3:0]  $end
$var wire    4  afj  si_sink(11).dest [3:0]  $end
$var wire    1  afk  si_sink(11).pkt_clk       $end
$var wire    1  afl  si_sink(11).h_t       $end
$var wire   11  afm  si_sink(12).data [10:0]  $end
$var wire    4  afn  si_sink(12).id [3:0]  $end
$var wire    4  afo  si_sink(12).dest [3:0]  $end
$var wire    1  afp  si_sink(12).pkt_clk       $end
$var wire    1  afq  si_sink(12).h_t       $end
$var wire   11  afr  si_sink(13).data [10:0]  $end
$var wire    4  afs  si_sink(13).id [3:0]  $end
$var wire    4  aft  si_sink(13).dest [3:0]  $end
$var wire    1  afu  si_sink(13).pkt_clk       $end
$var wire    1  afv  si_sink(13).h_t       $end
$var wire   11  afw  si_sink(14).data [10:0]  $end
$var wire    4  afx  si_sink(14).id [3:0]  $end
$var wire    4  afy  si_sink(14).dest [3:0]  $end
$var wire    1  afz  si_sink(14).pkt_clk       $end
$var wire    1  aga  si_sink(14).h_t       $end
$var wire   11  agb  si_sink(15).data [10:0]  $end
$var wire    4  agc  si_sink(15).id [3:0]  $end
$var wire    4  agd  si_sink(15).dest [3:0]  $end
$var wire    1  age  si_sink(15).pkt_clk       $end
$var wire    1  agf  si_sink(15).h_t       $end
$upscope $end
$enddefinitions  $end

$comment
All initial values are dumped below at time 0 sec = 0 timescale units.
$end

$dumpvars
1aaa
0aab
b0 aac
b0 aad
b0 aae
0aaf
0aag
b0 aah
b0 aai
b0 aaj
0aak
0aal
b0 aam
b0 aan
b0 aao
0aap
0aaq
b0 aar
b0 aas
b0 aat
0aau
0aav
b0 aaw
b0 aax
b0 aay
0aaz
0aba
b0 abb
b0 abc
b0 abd
0abe
0abf
b0 abg
b0 abh
b0 abi
0abj
0abk
b0 abl
b0 abm
b0 abn
0abo
0abp
b0 abq
b0 abr
b0 abs
0abt
0abu
b0 abv
b0 abw
b0 abx
0aby
0abz
b0 aca
b0 acb
b0 acc
0acd
0ace
b0 acf
b0 acg
b0 ach
0aci
0acj
b0 ack
b0 acl
b0 acm
0acn
0aco
b0 acp
b0 acq
b0 acr
0acs
0act
b0 acu
b0 acv
b0 acw
0acx
0acy
b0 acz
b0 ada
b0 adb
0adc
0add
b0 ade
b0 adf
b0 adg
0adh
0adi
b0 adj
b0 adk
b0 adl
0adm
0adn
b0 ado
b0 adp
b0 adq
0adr
0ads
b0 adt
b0 adu
b0 adv
0adw
0adx
b0 ady
b0 adz
b0 aea
0aeb
0aec
b0 aed
b0 aee
b0 aef
0aeg
0aeh
b0 aei
b0 aej
b0 aek
0ael
0aem
b0 aen
b0 aeo
b0 aep
0aeq
0aer
b0 aes
b0 aet
b0 aeu
0aev
0aew
b0 aex
b0 aey
b0 aez
0afa
0afb
b0 afc
b0 afd
b0 afe
0aff
0afg
b0 afh
b0 afi
b0 afj
0afk
0afl
b0 afm
b0 afn
b0 afo
0afp
0afq
b0 afr
b0 afs
b0 aft
0afu
0afv
b0 afw
b0 afx
b0 afy
0afz
0aga
b0 agb
b0 agc
b0 agd
0age
0agf
$end

#10000
1aab

#12500
0aab

#15000
1aab

#17500
0aab

#20000
1aab

#22500
0aab

#25000
1aab

#27500
0aab

#30000
1aab

#32500
0aab

#35000
1aab

#37500
0aab

#40000
1aab

#42500
0aab

#45000
1aab

#47500
0aab

#50000
1aab

#52500
0aab

#55000
1aab

#57500
0aab

#60000
1aab

#62500
0aaa
0aab

#65000
1aab

#67500
0aab

#70000
1aab

#72500
0aab

#75000
1aab

#77500
0aab

#80000
1aab

#82500
0aab

#85000
1aab

#87500
0aab

#90000
1aab

#92500
0aab

#95000
1aab

#97500
0aab

#100000
1aab

#102500
0aab

#105000
1aab

#107500
0aab

#110000
1aab

#112500
0aab

#115000
1aab

#117500
0aab

#120000
1aab

#122500
0aab

#125000
1aaa
1aab
b1111101001 aac
b1110 aae
1aaf
b1111101010 aah
b1 aai
b1111 aaj
1aak
b1111101011 aam
b10 aan
1aap
b1111101100 aar
b11 aas
b1 aat
1aau
b1111101101 aaw
b100 aax
b10 aay
1aaz
b1111101110 abb
b101 abc
b11 abd
1abe
b1111101111 abg
b110 abh
b100 abi
1abj
b1111110000 abl
b111 abm
b101 abn
1abo
b1111110001 abq
b1000 abr
b110 abs
1abt
b1111110010 abv
b1001 abw
b111 abx
1aby
b1111110011 aca
b1010 acb
b1000 acc
1acd
b1111110100 acf
b1011 acg
b1001 ach
1aci
b1111110101 ack
b1100 acl
b1010 acm
1acn
b1111110110 acp
b1101 acq
b1011 acr
1acs
b1111110111 acu
b1110 acv
b1100 acw
1acx
b1111111000 acz
b1111 ada
b1101 adb
1adc
b1111101001 ade
b1110 adg
1adh
b1111101010 adj
b1 adk
b1111 adl
1adm
b1111101011 ado
b10 adp
1adr
b1111101100 adt
b11 adu
b1 adv
1adw
b1111101101 ady
b100 adz
b10 aea
1aeb
b1111101110 aed
b101 aee
b11 aef
1aeg
b1111101111 aei
b110 aej
b100 aek
1ael
b1111110000 aen
b111 aeo
b101 aep
1aeq
b1111110001 aes
b1000 aet
b110 aeu
1aev
b1111110010 aex
b1001 aey
b111 aez
1afa
b1111110011 afc
b1010 afd
b1000 afe
1aff
b1111110100 afh
b1011 afi
b1001 afj
1afk
b1111110101 afm
b1100 afn
b1010 afo
1afp
b1111110110 afr
b1101 afs
b1011 aft
1afu
b1111110111 afw
b1110 afx
b1100 afy
1afz
b1111111000 agb
b1111 agc
b1101 agd
1age

#127500
0aab

#130000
1aab

#132500
0aab

#135000
1aab

#137500
0aab

#140000
1aab

#142500
0aab

#145000
1aab

#147500
0aab

#150000
1aab

#152500
0aab

#155000
1aab

#157500
0aab

#160000
1aab

#162500
0aab

#165000
1aab

#167500
0aab

#170000
1aab

#172500
0aab

#175000
1aab

#177500
0aab

#180000
1aab

#182500
0aab

#185000
1aab

#187500
0aaa
0aab

#190000
1aab

#192500
0aab

#195000
1aab

#197500
0aab

#200000
1aab

#202500
0aab

#205000
1aab

#207500
0aab

#210000
1aab

#212500
0aab

#215000
1aab

#217500
0aab

#220000
1aab

#222500
0aab

#225000
1aab

#227500
0aab

#230000
1aab

#232500
0aab

#235000
1aab

#237500
0aab

#240000
1aab

#242500
0aab

#245000
1aab

#247500
0aab

#250000
1aaa
1aab
b1111101010 aac
0aaf
b1111101100 aah
0aak
b1111101110 aam
0aap
b1111110000 aar
0aau
b1111110010 aaw
0aaz
b1111110100 abb
0abe
b1111110110 abg
0abj
b1111111000 abl
0abo
b1111111010 abq
0abt
b1111111100 abv
0aby
b1111111110 aca
0acd
b10000000000 acf
0aci
b10000000010 ack
0acn
b10000000100 acp
0acs
b10000000110 acu
0acx
b10000001000 acz
0adc
b1111101010 ade
0adh
b1111101100 adj
0adm
b1111101110 ado
0adr
b1111110000 adt
0adw
b1111110010 ady
0aeb
b1111110100 aed
0aeg
b1111110110 aei
0ael
b1111111000 aen
0aeq
b1111111010 aes
0aev
b1111111100 aex
0afa
b1111111110 afc
0aff
b10000000000 afh
0afk
b10000000010 afm
0afp
b10000000100 afr
0afu
b10000000110 afw
0afz
b10000001000 agb
0age

#252500
0aab

#255000
1aab

#257500
0aab

#260000
1aab

#262500
0aab

#265000
1aab

#267500
0aab

#270000
1aab

#272500
0aab

#275000
1aab

#277500
0aab

#280000
1aab

#282500
0aab

#285000
1aab

#287500
0aab

#290000
1aab

#292500
0aab

#295000
1aab

#297500
0aab

#300000
1aab

#302500
0aab

#305000
1aab

#307500
0aab

#310000
1aab

#312500
0aaa
0aab

#315000
1aab

#317500
0aab

#320000
1aab

#322500
0aab

#325000
1aab

#327500
0aab

#330000
1aab

#332500
0aab

#335000
1aab

#337500
0aab

#340000
1aab

#342500
0aab

#345000
1aab

#347500
0aab

#350000
1aab

#352500
0aab

#355000
1aab

#357500
0aab

#360000
1aab

#362500
0aab

#365000
1aab

#367500
0aab

#370000
1aab

#372500
0aab

#375000
1aaa
1aab
b1111101011 aac
1aaf
b1111101110 aah
1aak
b1111110001 aam
1aap
b1111110100 aar
1aau
b1111110111 aaw
1aaz
b1111111010 abb
1abe
b1111111101 abg
1abj
b10000000000 abl
1abo
b10000000011 abq
1abt
b10000000110 abv
1aby
b10000001001 aca
1acd
b10000001100 acf
1aci
b10000001111 ack
1acn
b10000010010 acp
1acs
b10000010101 acu
1acx
b10000011000 acz
1adc
b1111101011 ade
1adh
b1111101110 adj
1adm
b1111110001 ado
1adr
b1111110100 adt
1adw
b1111110111 ady
1aeb
b1111111010 aed
1aeg
b1111111101 aei
1ael
b10000000000 aen
1aeq
b10000000011 aes
1aev
b10000000110 aex
1afa
b10000001001 afc
1aff
b10000001100 afh
1afk
b10000001111 afm
1afp
b10000010010 afr
1afu
b10000010101 afw
1afz
b10000011000 agb
1age

#377500
0aab

#380000
1aab

#382500
0aab

#385000
1aab

#387500
0aab

#390000
1aab

#392500
0aab

#395000
1aab

#397500
0aab

#400000
1aab

#402500
0aab

#405000
1aab

#407500
0aab

#410000
1aab

#412500
0aab

#415000
1aab

#417500
0aab

#420000
1aab

#422500
0aab

#425000
1aab

#427500
0aab

#430000
1aab

#432500
0aab

#435000
1aab

#437500
0aaa
0aab

#440000
1aab

#442500
0aab

#445000
1aab

#447500
0aab

#450000
1aab

#452500
0aab

#455000
1aab

#457500
0aab

#460000
1aab

#462500
0aab

#465000
1aab

#467500
0aab

#470000
1aab

#472500
0aab

#475000
1aab

#477500
0aab

#480000
1aab

#482500
0aab

#485000
1aab

#487500
0aab

#490000
1aab

#492500
0aab

#495000
1aab

#497500
0aab

#500000
1aaa
1aab
b1111101100 aac
0aaf
b1111110000 aah
0aak
b1111110100 aam
0aap
b1111111000 aar
0aau
b1111111100 aaw
0aaz
b10000000000 abb
0abe
b10000000100 abg
0abj
b10000001000 abl
0abo
b10000001100 abq
0abt
b10000010000 abv
0aby
b10000010100 aca
0acd
b10000011000 acf
0aci
b10000011100 ack
0acn
b10000100000 acp
0acs
b10000100100 acu
0acx
b10000101000 acz
0adc
b1111101100 ade
0adh
b1111110000 adj
0adm
b1111110100 ado
0adr
b1111111000 adt
0adw
b1111111100 ady
0aeb
b10000000000 aed
0aeg
b10000000100 aei
0ael
b10000001000 aen
0aeq
b10000001100 aes
0aev
b10000010000 aex
0afa
b10000010100 afc
0aff
b10000011000 afh
0afk
b10000011100 afm
0afp
b10000100000 afr
0afu
b10000100100 afw
0afz
b10000101000 agb
0age

#502500
0aab

#505000
1aab

#507500
0aab

#510000
1aab

#512500
0aab

#515000
1aab

#517500
0aab

#520000
1aab

#522500
0aab

#525000
1aab

#527500
0aab

#530000
1aab

#532500
0aab

#535000
1aab

#537500
0aab

#540000
1aab

#542500
0aab

#545000
1aab

#547500
0aab

#550000
1aab

#552500
0aab

#555000
1aab

#557500
0aab

#560000
1aab

#562500
0aaa
0aab

#565000
1aab

#567500
0aab

#570000
1aab

#572500
0aab

#575000
1aab

#577500
0aab

#580000
1aab

#582500
0aab

#585000
1aab

#587500
0aab

#590000
1aab

#592500
0aab

#595000
1aab

#597500
0aab

#600000
1aab

#602500
0aab

#605000
1aab

#607500
0aab

#610000
1aab

#612500
0aab

#615000
1aab

#617500
0aab

#620000
1aab

#622500
0aab

#625000
1aaa
1aab
b1111101101 aac
1aaf
1aag
b1111110010 aah
1aak
1aal
b1111110111 aam
1aap
1aaq
b1111111100 aar
1aau
1aav
b10000000001 aaw
1aaz
1aba
b10000000110 abb
1abe
1abf
b10000001011 abg
1abj
1abk
b10000010000 abl
1abo
1abp
b10000010101 abq
1abt
1abu
b10000011010 abv
1aby
1abz
b10000011111 aca
1acd
1ace
b10000100100 acf
1aci
1acj
b10000101001 ack
1acn
1aco
b10000101110 acp
1acs
1act
b10000110011 acu
1acx
1acy
b10000111000 acz
1adc
1add
b1111101101 ade
1adh
1adi
b1111110010 adj
1adm
1adn
b1111110111 ado
1adr
1ads
b1111111100 adt
1adw
1adx
b10000000001 ady
1aeb
1aec
b10000000110 aed
1aeg
1aeh
b10000001011 aei
1ael
1aem
b10000010000 aen
1aeq
1aer
b10000010101 aes
1aev
1aew
b10000011010 aex
1afa
1afb
b10000011111 afc
1aff
1afg
b10000100100 afh
1afk
1afl
b10000101001 afm
1afp
1afq
b10000101110 afr
1afu
1afv
b10000110011 afw
1afz
1aga
b10000111000 agb
1age
1agf

#627500
0aab

#630000
1aab

#632500
0aab

#635000
1aab

#637500
0aab

#640000
1aab

#642500
0aab

#645000
1aab

#647500
0aab

#650000
1aab

#652500
0aab

#655000
1aab

#657500
0aab

#660000
1aab

#662500
0aab

#665000
1aab

#667500
0aab

#670000
1aab

#672500
0aab

#675000
1aab

#677500
0aab

#680000
1aab

#682500
0aab

#685000
1aab

#687500
0aaa
0aab

#690000
1aab

#692500
0aab

#695000
1aab

#697500
0aab

#700000
1aab

#702500
0aab

#705000
1aab

#707500
0aab

#710000
1aab

#712500
0aab

#715000
1aab

#717500
0aab

#720000
1aab

#722500
0aab

#725000
1aab

#727500
0aab

#730000
1aab

#732500
0aab

#735000
1aab

#737500
0aab

#740000
1aab

#742500
0aab

#745000
1aab

#747500
0aab

#750000
1aaa
1aab
b1111101110 aac
0aaf
0aag
b1111110100 aah
0aak
0aal
b1111111010 aam
0aap
0aaq
b10000000000 aar
0aau
0aav
b10000000110 aaw
0aaz
0aba
b10000001100 abb
0abe
0abf
b10000010010 abg
0abj
0abk
b10000011000 abl
0abo
0abp
b10000011110 abq
0abt
0abu
b10000100100 abv
0aby
0abz
b10000101010 aca
0acd
0ace
b10000110000 acf
0aci
0acj
b10000110110 ack
0acn
0aco
b10000111100 acp
0acs
0act
b10001000010 acu
0acx
0acy
b10001001000 acz
0adc
0add
b1111101110 ade
0adh
0adi
b1111110100 adj
0adm
0adn
b1111111010 ado
0adr
0ads
b10000000000 adt
0adw
0adx
b10000000110 ady
0aeb
0aec
b10000001100 aed
0aeg
0aeh
b10000010010 aei
0ael
0aem
b10000011000 aen
0aeq
0aer
b10000011110 aes
0aev
0aew
b10000100100 aex
0afa
0afb
b10000101010 afc
0aff
0afg
b10000110000 afh
0afk
0afl
b10000110110 afm
0afp
0afq
b10000111100 afr
0afu
0afv
b10001000010 afw
0afz
0aga
b10001001000 agb
0age
0agf

#752500
0aab

#755000
1aab

#757500
0aab

#760000
1aab

#762500
0aab

#765000
1aab

#767500
0aab

#770000
1aab

#772500
0aab

#775000
1aab

#777500
0aab

#780000
1aab

#782500
0aab

#785000
1aab

#787500
0aab

#790000
1aab

#792500
0aab

#795000
1aab

#797500
0aab

#800000
1aab

#802500
0aab

#805000
1aab

#807500
0aab

#810000
1aab

#812500
0aaa
0aab

#815000
1aab

#817500
0aab

#820000
1aab

#822500
0aab

#825000
1aab

#827500
0aab

#830000
1aab

#832500
0aab

#835000
1aab

#837500
0aab

#840000
1aab

#842500
0aab

#845000
1aab

#847500
0aab

#850000
1aab

#852500
0aab

#855000
1aab

#857500
0aab

#860000
1aab

#862500
0aab

#865000
1aab

#867500
0aab

#870000
1aab

#872500
0aab

#875000
1aaa
1aab
b1111101111 aac
1aaf
b1111110110 aah
1aak
b1111111101 aam
1aap
b10000000100 aar
1aau
b10000001011 aaw
1aaz
b10000010010 abb
1abe
b10000011001 abg
1abj
b10000100000 abl
1abo
b10000100111 abq
1abt
b10000101110 abv
1aby
b10000110101 aca
1acd
b10000111100 acf
1aci
b10001000011 ack
1acn
b10001001010 acp
1acs
b10001010001 acu
1acx
b10001011000 acz
1adc
b1111101111 ade
1adh
b1111110110 adj
1adm
b1111111101 ado
1adr
b10000000100 adt
1adw
b10000001011 ady
1aeb
b10000010010 aed
1aeg
b10000011001 aei
1ael
b10000100000 aen
1aeq
b10000100111 aes
1aev
b10000101110 aex
1afa
b10000110101 afc
1aff
b10000111100 afh
1afk
b10001000011 afm
1afp
b10001001010 afr
1afu
b10001010001 afw
1afz
b10001011000 agb
1age

#877500
0aab

#880000
1aab

#882500
0aab

#885000
1aab

#887500
0aab

#890000
1aab

#892500
0aab

#895000
1aab

#897500
0aab

#900000
1aab

#902500
0aab

#905000
1aab

#907500
0aab

#910000
1aab

#912500
0aab

#915000
1aab

#917500
0aab

#920000
1aab

#922500
0aab

#925000
1aab

#927500
0aab

#930000
1aab

#932500
0aab

#935000
1aab

#937500
0aaa
0aab

#940000
1aab

#942500
0aab

#945000
1aab

#947500
0aab

#950000
1aab

#952500
0aab

#955000
1aab

#957500
0aab

#960000
1aab

#962500
0aab

#965000
1aab

#967500
0aab

#970000
1aab

#972500
0aab

#975000
1aab

#977500
0aab

#980000
1aab

#982500
0aab

#985000
1aab

#987500
0aab

#990000
1aab

#992500
0aab

#995000
1aab

#997500
0aab

#1000000
1aaa
1aab
b1111110000 aac
0aaf
b1111111000 aah
0aak
b10000000000 aam
0aap
b10000001000 aar
0aau
b10000010000 aaw
0aaz
b10000011000 abb
0abe
b10000100000 abg
0abj
b10000101000 abl
0abo
b10000110000 abq
0abt
b10000111000 abv
0aby
b10001000000 aca
0acd
b10001001000 acf
0aci
b10001010000 ack
0acn
b10001011000 acp
0acs
b10001100000 acu
0acx
b10001101000 acz
0adc
b1111110000 ade
0adh
b1111111000 adj
0adm
b10000000000 ado
0adr
b10000001000 adt
0adw
b10000010000 ady
0aeb
b10000011000 aed
0aeg
b10000100000 aei
0ael
b10000101000 aen
0aeq
b10000110000 aes
0aev
b10000111000 aex
0afa
b10001000000 afc
0aff
b10001001000 afh
0afk
b10001010000 afm
0afp
b10001011000 afr
0afu
b10001100000 afw
0afz
b10001101000 agb
0age

